<svg xmlns="http://www.w3.org/2000/svg" xmlns:xlink="http://www.w3.org/1999/xlink" viewBox="0 0 155.93 121.8">
  <defs>
    <path id="a" fill="#fff" stroke-width="5.86" d="M-1485.71-16.2a85.71 82.86 0 0 1-43.05 71.85 85.71 82.86 0 0 1-85.91-.32 85.71 82.86 0 0 1-42.47-72.18l85.71.64z"/>
  </defs>
  <g stroke="#000" transform="rotate(90 354.53 -86.8)">
    <path fill="#eee" stroke-width="4.7" d="M526.09 200.06s41.3 21.6 33.78-3.03c-7.53-24.65-28.95-19.68-28.95-19.68m-52.68-1.44s-40.1-23.78-33.9 1.23c6.2 25 27.86 21.2 27.86 21.2m38.95 31.68s1.98 46.57 19.54 27.72 2.54-34.9 2.54-34.9m-23.19 9.98s-.5 46.61-18.65 28.33c-18.15-18.29-3.65-34.81-3.65-34.81"/>
    <ellipse cx="268.57" cy="313.79" fill="#eee" stroke-width="9.1" rx="97.14" ry="130" transform="matrix(.34512 .05475 -.04572 .28823 426.35 94.94)"/>
    <ellipse cx="268.57" cy="313.79" fill="#fff" stroke-width="7.73" rx="97.14" ry="130" transform="matrix(.26168 .04151 -.03467 .21855 445.29 120.36)"/>
    <ellipse cx="-828.57" cy="15.22" fill="#eee" stroke-width="5.86" rx="97.14" ry="108.57" transform="rotate(21.24 -278.95 2194.93) scale(.34943)"/>
    <path stroke-width="5.86" d="M-731.43 15.22a97.14 108.57 0 0 1-92.6 108.45A97.14 108.57 0 0 1-925.3 25.34l96.72-10.12z" transform="matrix(-.03852 .00113 .00222 -.02144 459.53 151.75)"/>
    <path fill="none" stroke-width="1.47" d="m530.07 194.69-49.83 1.01"/>
    <path fill="none" stroke-width="1.05" d="m480.87 210.92 47.4-1.38"/>
    <use xlink:href="#a" stroke-width="5.86" transform="matrix(-.16847 .02342 -.02545 -.18307 224.05 175.15)"/>
    <g stroke-width="8.31">
      <g transform="matrix(.13055 .08351 -.07422 .11602 630.22 133.89)">
        <ellipse cx="-1028.57" cy="186.65" rx="37.14" ry="57.14" transform="matrix(.83888 0 0 .62027 107.13 408.02)"/>
        <ellipse cx="-1028.57" cy="186.65" fill="#fff" rx="37.14" ry="57.14" transform="matrix(.4648 0 0 .34367 -271.92 442.5)"/>
      </g>
      <g transform="matrix(.13055 .08351 -.07422 .11602 630.22 133.89)">
        <ellipse cx="-1028.57" cy="186.65" rx="37.14" ry="57.14" transform="matrix(.83888 0 0 .62027 107.13 408.02)"/>
        <ellipse cx="-1028.57" cy="186.65" fill="#fff" rx="37.14" ry="57.14" transform="matrix(.4648 0 0 .34367 -271.92 442.5)"/>
      </g>
    </g>
    <use xlink:href="#a" stroke-width="5.86" transform="matrix(.17008 -.00186 .00202 .18482 789.19 126.3)"/>
    <g stroke-width="8.31">
      <g transform="matrix(.13055 .08351 -.07422 .11602 664.97 133.52)">
        <ellipse cx="-1028.57" cy="186.65" rx="37.14" ry="57.14" transform="matrix(.83888 0 0 .62027 107.13 408.02)"/>
        <ellipse cx="-1028.57" cy="186.65" fill="#fff" rx="37.14" ry="57.14" transform="matrix(.4648 0 0 .34367 -271.92 442.5)"/>
      </g>
      <g transform="matrix(.13055 .08351 -.07422 .11602 664.97 133.52)">
        <ellipse cx="-1028.57" cy="186.65" rx="37.14" ry="57.14" transform="matrix(.83888 0 0 .62027 107.13 408.02)"/>
        <ellipse cx="-1028.57" cy="186.65" fill="#fff" rx="37.14" ry="57.14" transform="matrix(.4648 0 0 .34367 -271.92 442.5)"/>
      </g>
    </g>
    <path fill="#eee" stroke-width="4.7" d="M446.66 166.67s40.1-23.78 33.9 1.23c-6.2 25-27.86 21.2-27.86 21.2"/>
  </g>
</svg>
